lab10/lab10_traffic_light.vcd
$date
	Thu Jul 16 10:40:32 2026
$end
$version
	Icarus Verilog
$end
$timescale
	1ps
$end
$scope module tb_traffic_light_controller $end
$var wire 1 ! walk_light $end
$var wire 3 " side_light [2:0] $end
$var wire 3 # main_light [2:0] $end
$var reg 1 $ clk $end
$var reg 1 % ped_request $end
$var reg 1 & reset $end
$scope module uut $end
$var wire 1 $ clk $end
$var wire 1 % ped_request $end
$var wire 1 & reset $end
$var parameter 3 ' GREEN $end
$var parameter 2 ( MAIN_GREEN $end
$var parameter 4 ) MAIN_GREEN_NORMAL_TICKS $end
$var parameter 4 * MAIN_GREEN_REQUEST_TICKS $end
$var parameter 2 + MAIN_YELLOW $end
$var parameter 3 , RED $end
$var parameter 2 - SIDE_GREEN $end
$var parameter 4 . SIDE_GREEN_TICKS $end
$var parameter 2 / SIDE_YELLOW $end
$var parameter 3 0 YELLOW $end
$var parameter 4 1 YELLOW_TICKS $end
$var reg 4 2 limit [3:0] $end
$var reg 3 3 main_light [2:0] $end
$var reg 3 4 side_light [2:0] $end
$var reg 2 5 state [1:0] $end
$var reg 4 6 timer [3:0] $end
$var reg 1 ! walk_light $end
$upscope $end
$upscope $end
$enddefinitions $end
$comment Show the parameter values. $end
$dumpall
b10 1
b10 0
b11 /
b100 .
b10 -
b100 ,
b1 +
b11 *
b110 )
b0 (
b1 '
$end
#0
$dumpvars
b0 6
b0 5
b100 4
b1 3
b110 2
1&
0%
0$
b1 #
b100 "
0!
$end
#5000
1$
#10000
0$
#12000
0&
#15000
b1 6
1$
#20000
0$
#25000
b10 6
1$
#30000
0$
#35000
b11 6
1$
#40000
0$
#45000
b100 6
1$
#50000
0$
#55000
b101 6
1$
#60000
0$
#65000
b10 2
b10 #
b10 3
b1 5
b0 6
1$
#70000
0$
#75000
b1 6
1$
#80000
0$
#85000
b100 2
1!
b1 "
b1 4
b100 #
b100 3
b10 5
b0 6
1$
#90000
0$
#95000
b1 6
1$
#100000
0$
#105000
b10 6
1$
#110000
0$
#115000
b11 6
1$
#120000
0$
#125000
b10 2
0!
b10 "
b10 4
b11 5
b0 6
1$
#130000
0$
#135000
b1 6
1$
#140000
0$
#145000
b110 2
b100 "
b100 4
b1 #
b1 3
b0 5
b0 6
1$
#150000
0$
#155000
b1 6
1$
#160000
0$
#162000
b11 2
1%
#165000
b10 6
1$
#170000
0$
#175000
b10 2
b10 #
b10 3
b1 5
b0 6
1$
#180000
0$
#182000
0%
#185000
b1 6
1$
#190000
0$
#195000
b100 2
1!
b1 "
b1 4
b100 #
b100 3
b10 5
b0 6
1$
#200000
0$
#205000
b1 6
1$
#210000
0$
#215000
b10 6
1$
#220000
0$
#225000
b11 6
1$
#230000
0$
#235000
b10 2
0!
b10 "
b10 4
b11 5
b0 6
1$
#240000
0$
#245000
b1 6
1$
#250000
0$
#252000
b110 2
b100 "
b100 4
b1 #
b1 3
b0 6
b0 5
1&
#255000
1$
#260000
0$
#262000
0&
#265000
b1 6
1$
#270000
0$
#275000
b10 6
1$
#280000
0$
#285000
b11 6
1$
#290000
0$
#295000
b100 6
1$
