lab04/lab04/lab04_mux_decoder.vcd
$date
	Wed Jul  8 11:51:17 2026
$end
$version
	Icarus Verilog
$end
$timescale
	1ps
$end
$scope module tb_mux_decoder $end
$var wire 1 ! mux_y $end
$var wire 1 " mux8_y $end
$var wire 4 # dec_y [3:0] $end
$var reg 4 $ data [3:0] $end
$var reg 8 % data8 [7:0] $end
$var reg 1 & enable $end
$var reg 2 ' sel [1:0] $end
$var reg 3 ( sel8 [2:0] $end
$var integer 32 ) i [31:0] $end
$scope module dec $end
$var wire 1 & enable $end
$var wire 2 * sel [1:0] $end
$var reg 4 + y [3:0] $end
$upscope $end
$scope module mux $end
$var wire 4 , data [3:0] $end
$var wire 2 - sel [1:0] $end
$var reg 1 ! y $end
$upscope $end
$scope module mux8 $end
$var wire 8 . data [7:0] $end
$var wire 3 / sel [2:0] $end
$var reg 1 " y $end
$upscope $end
$upscope $end
$enddefinitions $end
$comment Show the parameter values. $end
$dumpall
$end
#0
$dumpvars
bx /
bx .
b0 -
b1010 ,
b1 +
b0 *
b0 )
bx (
b0 '
1&
bx %
b1010 $
b1 #
x"
0!
$end
#10000
b10 #
b10 +
1!
b1 '
b1 *
b1 -
b1 )
#20000
b100 #
b100 +
0!
b10 '
b10 *
b10 -
b10 )
#30000
b1000 #
b1000 +
1!
b11 '
b11 *
b11 -
b11 )
#40000
0!
b0 #
b0 +
b0 '
b0 *
b0 -
0&
b0 )
#50000
1!
b1 '
b1 *
b1 -
b1 )
#60000
0!
b10 '
b10 *
b10 -
b10 )
#70000
1!
b11 '
b11 *
b11 -
b11 )
#80000
0"
b0 (
b0 /
b10101100 %
b10101100 .
b0 )
#90000
b1 (
b1 /
b1 )
#100000
1"
b10 (
b10 /
b10 )
#110000
b11 (
b11 /
b11 )
#120000
0"
b100 (
b100 /
b100 )
#130000
1"
b101 (
b101 /
b101 )
#140000
0"
b110 (
b110 /
b110 )
#150000
1"
b111 (
b111 /
b111 )
#160000
b1000 )
