lab06/lab06_latch_flipflop.vcd
$date
	Wed Jul  8 12:38:10 2026
$end
$version
	Icarus Verilog
$end
$timescale
	1ps
$end
$scope module tb_latch_flipflop $end
$var wire 1 ! q_latch $end
$var wire 1 " q_ff $end
$var reg 1 # clk $end
$var reg 1 $ d $end
$var reg 1 % enable $end
$var reg 1 & reset $end
$scope module ff0 $end
$var wire 1 # clk $end
$var wire 1 $ d $end
$var wire 1 & reset $end
$var reg 1 " q $end
$upscope $end
$scope module latch0 $end
$var wire 1 $ d $end
$var wire 1 % enable $end
$var reg 1 ! q $end
$upscope $end
$upscope $end
$enddefinitions $end
$comment Show the parameter values. $end
$dumpall
$end
#0
$dumpvars
0&
0%
0$
0#
0"
x!
$end
#5000
1#
#10000
0#
#12000
1!
1$
1%
1&
#15000
1"
1#
#20000
0#
#24000
0!
0$
#25000
0"
1#
#30000
0#
#32000
1$
0%
#35000
1"
1#
#40000
0#
#45000
1#
#50000
0#
#52000
0"
0&
#55000
1#
#59000
1&
#60000
0#
#64000
0$
1%
